<?xml version="1.0" encoding="utf-8"?>
<!-- Generator: Adobe Illustrator 21.0.0, SVG Export Plug-In . SVG Version: 6.00 Build 0)  -->
<svg version="1.1" id="Layer_1" xmlns="http://www.w3.org/2000/svg" xmlns:xlink="http://www.w3.org/1999/xlink" x="0px" y="0px"
	 viewBox="0 0 92 49" style="enable-background:new 0 0 92 49;" xml:space="preserve">
<style type="text/css">
	.st0{fill:#FFFFFF;}
</style>
<path class="st0" d="M24.8,12.2v24.4L46,48.9l21.2-12.2V12.2L46,0L24.8,12.2z M58,31.4l-12,6.9l-12-6.9V17.5l12-6.9l12,6.9V31.4z
	 M0,12.2L21.2,0v10.5l-12,6.9v13.9l12,6.9v10.5L0,36.7V12.2z M13,19.7l8.2-4.7v10.5L13,30.3V19.7z M83.8,19.7L92,15v10.5l-8.2,4.7
	V19.7z M92,0v10.5l-12,6.9v26.2L70.8,49V12.2L92,0z"/>
</svg>
